{
  "users": [
    {
      "email": "SE@gmail.com",
      "id": 2,
      "gender": "male",
      "country": "ssdsd321131",
      "role": "SE",
      "confirmPassword": "vandung246",
      "editbale": true,
      "password": "$2a$10$bYIK1dbBB4duFH9oLebKWutc9oxbxGk31ABiaGoQTeFGuNzyF0GnW"
    },
    {
      "email": "SE3@gmail.com",
      "password": "$2a$10$vJuHW766XalK2KswRpYLMerkobL2hcZWuyFBe6aITd0LKtGFEOVOS",
      "gender": "male",
      "age": 28,
      "country": "vn",
      "confirmPassword": "vandung246",
      "role": "SE",
      "id": 4,
      "editbale": true
    },
    {
      "email": "SE2@gmail.com",
      "id": 5,
      "gender": "male",
      "country": "vn",
      "role": "SE",
      "confirmPassword": "vandung246",
      "editbale": true,
      "password": "$2a$10$qpRIj6ZU99Q/CTVRCwqRSu5MQrAJZErF2JLdL/phfOUXxXCL4ZZM6"
    },
    {
      "email": "pm@gmail.com",
      "password": "$2a$10$coeo4/v/2R1CM6ucQwn10OSi4NMGi3eDBWTYWGM/N6OEKaef9RKRO",
      "gender": "male",
      "age": 30,
      "country": "eng",
      "confirmPassword": "vandung246",
      "role": "PM",
      "id": 6,
      "editbale": true
    },
    {
      "email": "pm2@gmail.com",
      "password": "$2a$10$.CDS6rO3Jvj5gZitRag9gOLtpKKj6WiikK5XzdctE9w7NjyVqFUui",
      "gender": "female",
      "age": 46,
      "country": "vn",
      "confirmPassword": "vandung246",
      "role": "PM",
      "id": 7,
      "editbale": true
    },
    {
      "email": "SE4@gmail.com",
      "password": "$2a$10$/K8PvnCeDYBAf825hlshYeHRLzq.ZZtQ1qJ2zCiSfXpjrT68TQfG6",
      "gender": "male",
      "age": 12,
      "country": "vn",
      "confirmPassword": "vandung246",
      "role": "SE",
      "id": 8
    },
    {
      "email": "SE5@gmail.com",
      "id": 9,
      "gender": "female",
      "country": "vn",
      "role": "SE",
      "confirmPassword": "password",
      "editbale": true,
      "password": "$2a$10$hvoey8JY2NN5fZlW4ZOW8OMWB8kQvK3ONcQG5K7N1/ZdOwoGUNcX6"
    },
    {
      "email": "vandung@Gmail.com",
      "password": "$2a$10$BrWrLdQbdLEz97aodMy0rOhtEI3JMCi6frlzAnzR50HV29yz9UJnO",
      "gender": "male",
      "age": 19,
      "country": "vn",
      "confirmPassword": "vandung246",
      "role": "SE",
      "id": 10
    }
  ],
  "leaves": [
    {
      "reason": "nghi om",
      "fromDate": "2020-11-12",
      "toDate": "2020-11-14",
      "type": "Personal Leave",
      "project": "Merlin",
      "pm": "6",
      "userId": "2",
      "status": "Approval",
      "id": 1
    },
    {
      "reason": "nghi om",
      "fromDate": "2020-11-04",
      "toDate": "2020-11-20",
      "type": "Carried Over",
      "project": "jfuygwefwerwe",
      "pm": "5",
      "userId": "2",
      "status": "Pending",
      "id": 2
    },
    {
      "reason": "nghi ve que",
      "fromDate": "2020-11-05",
      "toDate": "2020-11-28",
      "type": "Carried Over",
      "project": "name project",
      "pm": "6",
      "userId": "8",
      "status": "Pending",
      "id": 3
    },
    {
      "reason": "nghi an cuoi",
      "fromDate": "2020-11-03",
      "toDate": "2020-11-27",
      "type": "Carried Over",
      "project": "project name 2",
      "pm": "6",
      "userId": "4",
      "status": "Pending",
      "id": 4
    },
    {
      "reason": "maried",
      "fromDate": "2020-10-30",
      "toDate": "2020-11-18",
      "type": "Personal Leave",
      "project": "name project",
      "pm": "7",
      "userId": "4",
      "status": "Pending",
      "id": 5
    },
    {
      "reason": "ádasdasdasdas",
      "fromDate": "2020-11-29T11:57:45.000Z",
      "toDate": "2020-12-16T17:00:00.000Z",
      "type": "Personal Leave",
      "project": "qưeqweqwewq",
      "pm": "6",
      "userId": "2",
      "status": "Pending",
      "id": 6
    },
    {
      "reason": "nghi om",
      "fromDate": "2020-11-30T04:33:05.000Z",
      "toDate": "2020-12-08T17:00:00.000Z",
      "type": "Carried Over",
      "project": "name 12",
      "pm": "6",
      "userId": "10",
      "status": "Pending",
      "id": 7
    }
  ]
}